{
  "teams": [
    2,
    4,
    23,
    21,
    25,
    6,
    9,
    29,
    28,
    17,
    26,
    5,
    41,
    10,
    19,
    1,
    24,
    14,
    16,
    30,
    38,
    7,
    15,
    31,
    8,
    22,
    11,
    40,
    20,
    27
  ],
  "tournament": {
    "_sl_subtitle": "",
    "_sl_date_from": "2020-12-22",
    "_sl_date_to": "2021-06-20",
    "_sl_pro_conf": [
      {
        "name": "East",
        "division": [
          "Atlantic",
          "Central",
          "Southeast"
        ]
      },
      {
        "name": "West",
        "division": [
          "Pacific",
          "Northwest",
          "Southwest"
        ]
      }
    ]
  },
  "stages": [
    {
      "_sl_groups": [
        {
          "id": 1,
          "title": "#1",
          "round": 1,
          "teams": []
        },
        {
          "id": 2,
          "title": "Tie #2",
          "round": 1,
          "teams": [
            2,
            4
          ]
        },
        {
          "id": 3,
          "title": "Tie #3",
          "round": 1,
          "teams": [
            23,
            21
          ]
        },
        {
          "id": 4,
          "title": "Tie #4",
          "round": 1,
          "teams": [
            25,
            6
          ]
        },
        {
          "id": 5,
          "title": "Tie #5",
          "round": 1,
          "teams": [
            9,
            29
          ]
        },
        {
          "id": 6,
          "title": "Tie #6",
          "round": 1,
          "teams": [
            28,
            17
          ]
        },
        {
          "id": 7,
          "title": "Tie #7",
          "round": 1,
          "teams": [
            26,
            5
          ]
        },
        {
          "id": 8,
          "title": "Tie #8",
          "round": 1,
          "teams": [
            41,
            10
          ]
        },
        {
          "id": 9,
          "title": "Tie #9",
          "round": 1,
          "teams": [
            19,
            1
          ]
        },
        {
          "id": 10,
          "title": "Tie #10",
          "round": 1,
          "teams": [
            1,
            26
          ]
        },
        {
          "id": 11,
          "title": "Tie #11",
          "round": 1,
          "teams": [
            10,
            24
          ]
        },
        {
          "id": 12,
          "title": "Tie #12",
          "round": 1,
          "teams": [
            6,
            14
          ]
        },
        {
          "id": 13,
          "title": "Tie #13",
          "round": 1,
          "teams": [
            17,
            16
          ]
        },
        {
          "id": 14,
          "title": "Tie #14",
          "round": 1,
          "teams": [
            29,
            30
          ]
        },
        {
          "id": 15,
          "title": "Tie #15",
          "round": 1,
          "teams": [
            5,
            38
          ]
        },
        {
          "id": 16,
          "title": "Tie #16",
          "round": 1,
          "teams": [
            7,
            15
          ]
        },
        {
          "id": 17,
          "title": "Tie #17",
          "round": 1,
          "teams": [
            31,
            25
          ]
        },
        {
          "id": 18,
          "title": "Tie #18",
          "round": 1,
          "teams": [
            21,
            8
          ]
        },
        {
          "id": 19,
          "title": "Tie #19",
          "round": 1,
          "teams": [
            22,
            19
          ]
        },
        {
          "id": 20,
          "title": "Tie #20",
          "round": 1,
          "teams": [
            11,
            9
          ]
        },
        {
          "id": 21,
          "title": "Tie #21",
          "round": 1,
          "teams": [
            40,
            28
          ]
        },
        {
          "id": 22,
          "title": "Tie #22",
          "round": 1,
          "teams": [
            1,
            26
          ]
        },
        {
          "id": 23,
          "title": "Tie #23",
          "round": 1,
          "teams": [
            4,
            41
          ]
        },
        {
          "id": 24,
          "title": "Tie #24",
          "round": 1,
          "teams": [
            10,
            24
          ]
        },
        {
          "id": 25,
          "title": "Tie #25",
          "round": 1,
          "teams": [
            6,
            14
          ]
        },
        {
          "id": 26,
          "title": "Tie #26",
          "round": 1,
          "teams": [
            17,
            16
          ]
        },
        {
          "id": 27,
          "title": "Tie #27",
          "round": 1,
          "teams": [
            29,
            30
          ]
        },
        {
          "id": 28,
          "title": "Tie #28",
          "round": 1,
          "teams": [
            7,
            15
          ]
        },
        {
          "id": 29,
          "title": "Tie #29",
          "round": 1,
          "teams": [
            5,
            38
          ]
        },
        {
          "id": 30,
          "title": "Tie #30",
          "round": 1,
          "teams": [
            20,
            23
          ]
        },
        {
          "id": 31,
          "title": "Tie #31",
          "round": 1,
          "teams": [
            21,
            8
          ]
        },
        {
          "id": 32,
          "title": "Tie #32",
          "round": 1,
          "teams": [
            22,
            19
          ]
        },
        {
          "id": 33,
          "title": "Tie #33",
          "round": 1,
          "teams": [
            40,
            28
          ]
        },
        {
          "id": 34,
          "title": "Tie #34",
          "round": 1,
          "teams": [
            27,
            2
          ]
        },
        {
          "id": 35,
          "title": "Tie #35",
          "round": 1,
          "teams": [
            14,
            31
          ]
        },
        {
          "id": 36,
          "title": "Tie #36",
          "round": 1,
          "teams": [
            30,
            11
          ]
        },
        {
          "id": 37,
          "title": "Tie #37",
          "round": 1,
          "teams": [
            24,
            7
          ]
        },
        {
          "id": 38,
          "title": "Tie #38",
          "round": 1,
          "teams": [
            25,
            6
          ]
        },
        {
          "id": 39,
          "title": "Tie #39",
          "round": 1,
          "teams": [
            9,
            29
          ]
        },
        {
          "id": 40,
          "title": "Tie #40",
          "round": 1,
          "teams": [
            28,
            17
          ]
        },
        {
          "id": 41,
          "title": "Tie #41",
          "round": 1,
          "teams": [
            26,
            5
          ]
        },
        {
          "id": 42,
          "title": "Tie #42",
          "round": 1,
          "teams": [
            41,
            10
          ]
        },
        {
          "id": 43,
          "title": "Tie #43",
          "round": 1,
          "teams": [
            14,
            31
          ]
        },
        {
          "id": 44,
          "title": "Tie #44",
          "round": 1,
          "teams": [
            19,
            1
          ]
        },
        {
          "id": 45,
          "title": "Tie #45",
          "round": 1,
          "teams": [
            8,
            22
          ]
        },
        {
          "id": 46,
          "title": "Tie #46",
          "round": 1,
          "teams": [
            30,
            11
          ]
        },
        {
          "id": 47,
          "title": "Tie #47",
          "round": 1,
          "teams": [
            16,
            40
          ]
        },
        {
          "id": 48,
          "title": "Tie #48",
          "round": 1,
          "teams": [
            15,
            27
          ]
        },
        {
          "id": 49,
          "title": "Tie #49",
          "round": 1,
          "teams": [
            38,
            20
          ]
        },
        {
          "id": 50,
          "title": "Tie #50",
          "round": 1,
          "teams": [
            24,
            7
          ]
        }
      ],
      "tournament_stage_id": 16298,
      "tournament_stage_title": "Pre-Season",
      "tournament_stage_order": 0,
      "_sl_bracket": "hide",
      "_sl_bracket_options": "{}",
      "_sl_gameday_current": "",
      "_sl_next_id_group": "51",
      "_sl_next_id_round": "2",
      "_sl_rounds": "[{\"id\":1,\"title\":\"\"}]",
      "_sl_stage_status": "friendly",
      "_sl_stage_system": "knockout"
    },
    {
      "_sl_groups": [
        {
          "id": 1,
          "round": 1,
          "teams": [
            1,
            2,
            4,
            5,
            6,
            7,
            8,
            9,
            10,
            11,
            14,
            15,
            16,
            17,
            19,
            20,
            21,
            22,
            23,
            24,
            25,
            26,
            27,
            28,
            29,
            30,
            31,
            38,
            40,
            41
          ],
          "title": ""
        }
      ],
      "tournament_stage_id": 16295,
      "tournament_stage_title": "Regular Season",
      "tournament_stage_order": 1,
      "_sl_bracket": "",
      "_sl_bracket_options": "{}",
      "_sl_gameday_current": "",
      "_sl_next_id_group": "2",
      "_sl_next_id_round": "2",
      "_sl_rounds": "[{\"id\":1,\"title\":\"\"}]",
      "_sl_stage_status": "official",
      "_sl_stage_system": "group"
    },
    {
      "_sl_groups": [
        {
          "id": 1,
          "title": "#1",
          "round": 1,
          "teams": [
            2,
            41
          ]
        },
        {
          "id": 2,
          "title": "#2",
          "round": 1,
          "teams": [
            15,
            5
          ]
        },
        {
          "id": 3,
          "title": "#3",
          "round": 1,
          "teams": [
            17,
            11
          ]
        },
        {
          "id": 4,
          "title": "#4",
          "round": 1,
          "teams": [
            19,
            31
          ]
        },
        {
          "id": 5,
          "title": "#5",
          "round": 2,
          "teams": [
            41,
            15
          ]
        },
        {
          "id": 6,
          "title": "#6",
          "round": 2,
          "teams": [
            11,
            19
          ]
        }
      ],
      "tournament_stage_id": 16296,
      "tournament_stage_title": "Play-In",
      "tournament_stage_order": 2,
      "_sl_bracket": "hide",
      "_sl_bracket_options": "{}",
      "_sl_gameday_current": "",
      "_sl_next_id_group": "7",
      "_sl_next_id_round": "3",
      "_sl_rounds": "[{\"id\":1,\"title\":\"Play-in games\"},{\"id\":2,\"title\":\"No. 8 seed game\"}]",
      "_sl_stage_status": "official",
      "_sl_stage_system": "knockout"
    },
    {
      "_sl_groups": [
        {
          "id": 1,
          "title": "#1",
          "round": 1,
          "teams": [
            27,
            41
          ]
        },
        {
          "id": 2,
          "title": "#2",
          "round": 1,
          "teams": [
            24,
            1
          ]
        },
        {
          "id": 3,
          "title": "#3",
          "round": 1,
          "teams": [
            21,
            20
          ]
        },
        {
          "id": 4,
          "title": "#4",
          "round": 1,
          "teams": [
            4,
            2
          ]
        },
        {
          "id": 5,
          "title": "#5",
          "round": 1,
          "teams": [
            40,
            19
          ]
        },
        {
          "id": 6,
          "title": "#6",
          "round": 1,
          "teams": [
            16,
            8
          ]
        },
        {
          "id": 7,
          "title": "#7",
          "round": 1,
          "teams": [
            9,
            29
          ]
        },
        {
          "id": 8,
          "title": "#8",
          "round": 1,
          "teams": [
            28,
            17
          ]
        },
        {
          "id": 9,
          "title": "#9",
          "round": 2,
          "teams": [
            27,
            1
          ]
        },
        {
          "id": 10,
          "title": "#10",
          "round": 2,
          "teams": [
            21,
            4
          ]
        },
        {
          "id": 11,
          "title": "#11",
          "round": 2,
          "teams": [
            40,
            16
          ]
        },
        {
          "id": 12,
          "title": "#12",
          "round": 2,
          "teams": [
            9,
            28
          ]
        },
        {
          "id": 13,
          "title": "#13",
          "round": 3,
          "teams": [
            1,
            21
          ]
        },
        {
          "id": 14,
          "title": "#14",
          "round": 3,
          "teams": [
            16,
            28
          ]
        },
        {
          "id": 15,
          "title": "#15",
          "round": 4,
          "teams": [
            21,
            28
          ]
        }
      ],
      "tournament_stage_id": 16297,
      "tournament_stage_title": "Playoffs",
      "tournament_stage_order": 3,
      "_sl_bracket": "",
      "_sl_bracket_options": "{}",
      "_sl_gameday_current": "",
      "_sl_next_id_group": "16",
      "_sl_next_id_round": "5",
      "_sl_rounds": "[{\"id\":1,\"title\":\"First Round\"},{\"id\":2,\"title\":\"Conference Semifinals\"},{\"id\":3,\"title\":\"Conference Finals\"},{\"id\":4,\"title\":\"Finals\"}]",
      "_sl_stage_status": "official",
      "_sl_stage_system": "knockout"
    }
  ],
  "standings": [
    {
      "_sl_format_robin": "custom",
      "_sl_group_id": "1",
      "_sl_manual_filling": "",
      "_sl_manual_ordering": "",
      "_sl_points_initial": "[]",
      "_sl_pro_columns": "[{\"origin\":\"Win - all\",\"key\":\"all_win\",\"abbr\":\"W\",\"name\":\"Win - all\",\"bg_class\":\"\",\"border\":\"\",\"visibility\":\"\",\"type\":\"general\",\"layout\":\"full\",\"games\":\"\",\"id\":\"2\"},{\"origin\":\"Loss - all\",\"key\":\"all_loss\",\"abbr\":\"L\",\"name\":\"Loss - all\",\"bg_class\":\"\",\"border\":\"\",\"visibility\":\"\",\"type\":\"general\",\"layout\":\"full\",\"games\":\"\",\"id\":\"4\"},{\"origin\":\"\",\"key\":\"\",\"abbr\":\"Win%\",\"name\":\"Win%\",\"bg_class\":\"custom\",\"border\":\"\",\"visibility\":\"\",\"type\":\"calculated\",\"field_1\":\"2\",\"field_2\":\"1\",\"field_3\":\"\",\"calc\":\"ratio\",\"digits\":\"3\",\"layout\":\"\",\"id\":\"9\",\"bg_class_custom\":\"#e8f2f9\"},{\"origin\":\"Played\",\"key\":\"played\",\"abbr\":\"GP\",\"name\":\"Played\",\"bg_class\":\"\",\"border\":\"\",\"visibility\":\"\",\"type\":\"general\",\"layout\":\"\",\"games\":\"\",\"id\":\"1\"},{\"origin\":\"Win - all\",\"key\":\"all_win\",\"abbr\":\"all_win\",\"name\":\"Win [HOME]\",\"bg_class\":\"\",\"border\":\"\",\"visibility\":\"hidden\",\"type\":\"general\",\"layout\":\"\",\"games\":\"home\",\"id\":\"10\"},{\"origin\":\"Loss - all\",\"key\":\"all_loss\",\"abbr\":\"all_loss\",\"name\":\"Loss [HOME]\",\"bg_class\":\"\",\"border\":\"\",\"visibility\":\"hidden\",\"type\":\"general\",\"layout\":\"\",\"games\":\"home\",\"id\":\"12\"},{\"origin\":\"\",\"key\":\"\",\"abbr\":\"Home\",\"name\":\"Home\",\"bg_class\":\"\",\"border\":\"\",\"visibility\":\"\",\"type\":\"composed\",\"field_1\":\"10\",\"field_2\":\"12\",\"field_3\":\"\",\"layout\":\"\",\"id\":\"14\"},{\"origin\":\"Win - all\",\"key\":\"all_win\",\"abbr\":\"all_win\",\"name\":\"Win [AWAY]\",\"bg_class\":\"\",\"border\":\"\",\"visibility\":\"hidden\",\"type\":\"general\",\"layout\":\"\",\"games\":\"away\",\"id\":\"15\"},{\"origin\":\"Loss - all\",\"key\":\"all_loss\",\"abbr\":\"all_loss\",\"name\":\"Loss [AWAY]\",\"bg_class\":\"\",\"border\":\"\",\"visibility\":\"hidden\",\"type\":\"general\",\"layout\":\"\",\"games\":\"away\",\"id\":\"16\"},{\"origin\":\"\",\"key\":\"\",\"abbr\":\"Road\",\"name\":\"Road\",\"bg_class\":\"\",\"border\":\"\",\"visibility\":\"\",\"type\":\"composed\",\"field_1\":\"15\",\"field_2\":\"16\",\"field_3\":\"\",\"layout\":\"\",\"id\":\"17\"},{\"origin\":\"Win - overtime\",\"key\":\"ov_win\",\"abbr\":\"ov_win\",\"name\":\"Win - overtime\",\"bg_class\":\"\",\"border\":\"\",\"visibility\":\"hidden\",\"type\":\"general\",\"layout\":\"\",\"games\":\"\",\"id\":\"18\"},{\"origin\":\"Loss - overtime\",\"key\":\"ov_loss\",\"abbr\":\"ov_loss\",\"name\":\"Loss - overtime\",\"bg_class\":\"\",\"border\":\"\",\"visibility\":\"hidden\",\"type\":\"general\",\"layout\":\"\",\"games\":\"\",\"id\":\"19\"},{\"origin\":\"\",\"key\":\"\",\"abbr\":\"OT\",\"name\":\"Overtimes (Win-Loss)\",\"bg_class\":\"\",\"border\":\"\",\"visibility\":\"\",\"type\":\"composed\",\"field_1\":\"18\",\"field_2\":\"19\",\"field_3\":\"\",\"layout\":\"\",\"id\":\"20\"},{\"origin\":\"Last 10: W-L\",\"key\":\"last_10_w_l\",\"abbr\":\"Last 10\",\"name\":\"Last 10: Win-Loss\",\"bg_class\":\"\",\"border\":\"\",\"visibility\":\"\",\"type\":\"general\",\"layout\":\"\",\"games\":\"\",\"id\":\"21\"},{\"origin\":\"Streak\",\"key\":\"streak\",\"abbr\":\"streak\",\"name\":\"Streak\",\"bg_class\":\"\",\"border\":\"\",\"visibility\":\"\",\"type\":\"general\",\"layout\":\"\",\"games\":\"\",\"id\":\"22\"}]",
      "_sl_pro_partitions": "{\"22\":{\"c\":\"West\",\"d\":\"Northwest\"},\"8\":{\"c\":\"West\",\"d\":\"Southwest\"},\"17\":{\"c\":\"West\",\"d\":\"Pacific\"},\"11\":{\"c\":\"West\",\"d\":\"Pacific\"},\"6\":{\"c\":\"East\",\"d\":\"Central\"},\"21\":{\"c\":\"East\",\"d\":\"Central\"},\"28\":{\"c\":\"West\",\"d\":\"Pacific\"},\"10\":{\"c\":\"East\",\"d\":\"Central\"},\"27\":{\"c\":\"East\",\"d\":\"Atlantic\"},\"2\":{\"c\":\"East\",\"d\":\"Atlantic\"},\"15\":{\"c\":\"East\",\"d\":\"Central\"},\"19\":{\"c\":\"West\",\"d\":\"Southwest\"},\"30\":{\"c\":\"West\",\"d\":\"Pacific\"},\"38\":{\"c\":\"East\",\"d\":\"Atlantic\"},\"40\":{\"c\":\"West\",\"d\":\"Northwest\"},\"16\":{\"c\":\"West\",\"d\":\"Pacific\"},\"24\":{\"c\":\"East\",\"d\":\"Atlantic\"},\"31\":{\"c\":\"West\",\"d\":\"Southwest\"},\"25\":{\"c\":\"West\",\"d\":\"Northwest\"},\"4\":{\"c\":\"East\",\"d\":\"Atlantic\"},\"41\":{\"c\":\"East\",\"d\":\"Southeast\"},\"7\":{\"c\":\"East\",\"d\":\"Central\"},\"1\":{\"c\":\"East\",\"d\":\"Southeast\"},\"5\":{\"c\":\"East\",\"d\":\"Southeast\"},\"20\":{\"c\":\"East\",\"d\":\"Southeast\"},\"14\":{\"c\":\"West\",\"d\":\"Southwest\"},\"26\":{\"c\":\"East\",\"d\":\"Southeast\"},\"23\":{\"c\":\"West\",\"d\":\"Southwest\"},\"9\":{\"c\":\"West\",\"d\":\"Northwest\"},\"29\":{\"c\":\"West\",\"d\":\"Northwest\"}}",
      "_sl_pro_partitions_active": "yes",
      "_sl_pro_ranking_rules": "[{\"id\":\"9\",\"text\":\"Win%\",\"order\":\"\"}]",
      "_sl_stage_id": "16295",
      "_sl_table_colors": "{}",
      "title": ""
    }
  ],
  "tournament_id": 16293,
  "league_api": {
    "league_api": "standard",
    "season_api": "2020"
  },
  "season": "2020-2021",
  "league_local": {
    "name": "NBA"
  },
  "api_mapped_rounds": {
    "16295": 2,
    "16296": 5,
    "16297": 4,
    "16298": 1
  }
}
